%YAML 1.1
%TAG !u! tag:unity3d.com,2011:
--- !u!1001 &55142255091280964
PrefabInstance:
  m_ObjectHideFlags: 0
  serializedVersion: 2
  m_Modification:
    serializedVersion: 3
    m_TransformParent: {fileID: 0}
    m_Modifications:
    - target: {fileID: -8679921383154817045, guid: bd138f0db143bc14a83923a0508f452a, type: 3}
      propertyPath: m_RootOrder
      value: 0
      objectReference: {fileID: 0}
    - target: {fileID: -8679921383154817045, guid: bd138f0db143bc14a83923a0508f452a, type: 3}
      propertyPath: m_LocalPosition.x
      value: 12.125626
      objectReference: {fileID: 0}
    - target: {fileID: -8679921383154817045, guid: bd138f0db143bc14a83923a0508f452a, type: 3}
      propertyPath: m_LocalPosition.y
      value: 3.9982593
      objectReference: {fileID: 0}
    - target: {fileID: -8679921383154817045, guid: bd138f0db143bc14a83923a0508f452a, type: 3}
      propertyPath: m_LocalPosition.z
      value: -4.318591
      objectReference: {fileID: 0}
    - target: {fileID: -8679921383154817045, guid: bd138f0db143bc14a83923a0508f452a, type: 3}
      propertyPath: m_LocalRotation.w
      value: 1
      objectReference: {fileID: 0}
    - target: {fileID: -8679921383154817045, guid: bd138f0db143bc14a83923a0508f452a, type: 3}
      propertyPath: m_LocalRotation.x
      value: 0
      objectReference: {fileID: 0}
    - target: {fileID: -8679921383154817045, guid: bd138f0db143bc14a83923a0508f452a, type: 3}
      propertyPath: m_LocalRotation.y
      value: -0
      objectReference: {fileID: 0}
    - target: {fileID: -8679921383154817045, guid: bd138f0db143bc14a83923a0508f452a, type: 3}
      propertyPath: m_LocalRotation.z
      value: -0
      objectReference: {fileID: 0}
    - target: {fileID: -8679921383154817045, guid: bd138f0db143bc14a83923a0508f452a, type: 3}
      propertyPath: m_LocalEulerAnglesHint.x
      value: 0
      objectReference: {fileID: 0}
    - target: {fileID: -8679921383154817045, guid: bd138f0db143bc14a83923a0508f452a, type: 3}
      propertyPath: m_LocalEulerAnglesHint.y
      value: 0
      objectReference: {fileID: 0}
    - target: {fileID: -8679921383154817045, guid: bd138f0db143bc14a83923a0508f452a, type: 3}
      propertyPath: m_LocalEulerAnglesHint.z
      value: 0
      objectReference: {fileID: 0}
    - target: {fileID: 919132149155446097, guid: bd138f0db143bc14a83923a0508f452a, type: 3}
      propertyPath: m_Name
      value: Ball Variant
      objectReference: {fileID: 0}
    m_RemovedComponents: []
    m_RemovedGameObjects: []
    m_AddedGameObjects: []
    m_AddedComponents:
    - targetCorrespondingSourceObject: {fileID: 919132149155446097, guid: bd138f0db143bc14a83923a0508f452a, type: 3}
      insertIndex: -1
      addedObject: {fileID: 5744695984207252993}
    - targetCorrespondingSourceObject: {fileID: 919132149155446097, guid: bd138f0db143bc14a83923a0508f452a, type: 3}
      insertIndex: -1
      addedObject: {fileID: 9185074032898320447}
    - targetCorrespondingSourceObject: {fileID: 919132149155446097, guid: bd138f0db143bc14a83923a0508f452a, type: 3}
      insertIndex: -1
      addedObject: {fileID: 1912855413760514125}
  m_SourcePrefab: {fileID: 100100000, guid: bd138f0db143bc14a83923a0508f452a, type: 3}
--- !u!1 &865410515526570261 stripped
GameObject:
  m_CorrespondingSourceObject: {fileID: 919132149155446097, guid: bd138f0db143bc14a83923a0508f452a, type: 3}
  m_PrefabInstance: {fileID: 55142255091280964}
  m_PrefabAsset: {fileID: 0}
--- !u!114 &5744695984207252993
MonoBehaviour:
  m_ObjectHideFlags: 0
  m_CorrespondingSourceObject: {fileID: 0}
  m_PrefabInstance: {fileID: 0}
  m_PrefabAsset: {fileID: 0}
  m_GameObject: {fileID: 865410515526570261}
  m_Enabled: 1
  m_EditorHideFlags: 0
  m_Script: {fileID: 11500000, guid: 822bc9090447b9c40833509c4a32e597, type: 3}
  m_Name: 
  m_EditorClassIdentifier: 
  ignoreMe: 0
  body: {fileID: 0}
  hightlightMaterial: {fileID: 0}
  isGrabbable: 1
  CopySettings: {fileID: 0}
  singleHandOnly: 0
  allowHeldSwapping: 1
  instantGrab: 0
  ignoreWeight: 0
  maintainGrabOffset: 0
  parentOnGrab: 1
  throwPower: 1
  jointBreakForce: 3500
  showAdvancedSettings: 0
  handType: 0
  grabType: 0
  useGentleGrab: 0
  makeChildrenGrabbable: 1
  pullApartBreakOnly: 1
  customGrabJoint: {fileID: 0}
  ignoreReleaseTime: 0.5
  grabPriorityWeight: 1
  heldPositionOffset: {x: 0, y: 0, z: 0}
  heldRotationOffset: {x: 0, y: 0, z: 0}
  jointedBodies: []
  heldIgnoreColliders: []
  showEvents: 1
  onGrab:
    m_PersistentCalls:
      m_Calls: []
  onRelease:
    m_PersistentCalls:
      m_Calls: []
  showAdvancedEvents: 0
  onSqueeze:
    m_PersistentCalls:
      m_Calls: []
  onUnsqueeze:
    m_PersistentCalls:
      m_Calls: []
  onHighlight:
    m_PersistentCalls:
      m_Calls: []
  onUnhighlight:
    m_PersistentCalls:
      m_Calls: []
  OnJointBreak:
    m_PersistentCalls:
      m_Calls: []
  lockHandOnGrab: 0
--- !u!114 &9185074032898320447
MonoBehaviour:
  m_ObjectHideFlags: 0
  m_CorrespondingSourceObject: {fileID: 0}
  m_PrefabInstance: {fileID: 0}
  m_PrefabAsset: {fileID: 0}
  m_GameObject: {fileID: 865410515526570261}
  m_Enabled: 1
  m_EditorHideFlags: 0
  m_Script: {fileID: 11500000, guid: 935aaf7da50abf94697c8d70a7a71efe, type: 3}
  m_Name: 
  m_EditorClassIdentifier: 
  ignoreMe: 0
  instantPull: 1
  grabType: 0
  archMultiplier: 0.6
  gravitationVelocity: 1
  rotate: 1
  rotationSpeed: 1
  ignoreHighlights: 1
  targetedMaterial: {fileID: 0}
  selectedMaterial: {fileID: 0}
  showEvents: 1
  OnPull:
    m_PersistentCalls:
      m_Calls: []
  StartTargeting:
    m_PersistentCalls:
      m_Calls: []
  StopTargeting:
    m_PersistentCalls:
      m_Calls: []
  StartSelecting:
    m_PersistentCalls:
      m_Calls: []
  StopSelecting:
    m_PersistentCalls:
      m_Calls: []
--- !u!114 &1912855413760514125
MonoBehaviour:
  m_ObjectHideFlags: 0
  m_CorrespondingSourceObject: {fileID: 0}
  m_PrefabInstance: {fileID: 0}
  m_PrefabAsset: {fileID: 0}
  m_GameObject: {fileID: 865410515526570261}
  m_Enabled: 1
  m_EditorHideFlags: 0
  m_Script: {fileID: 11500000, guid: 5143e42808965614a9bb64f4880aaf33, type: 3}
  m_Name: 
  m_EditorClassIdentifier: 
  ignoreMe: 0
  poseEnabled: 1
  poseName: 
  poseIndex: 0
  singleHanded: 0
  showAdvanced: 1
  positionWeight: 1
  rotationWeight: 1
  linkedPoses: []
  showEditorTools: 1
  poseScriptable: {fileID: 0}
  editorHand: {fileID: 0}
  rightPose:
    handOffset: {x: 0, y: 0, z: 0}
    rotationOffset: {x: 0, y: 0, z: 0}
    localQuaternionOffset: {x: 0, y: 0, z: 0, w: 0}
    posePositions: []
    poseRotations: []
  rightPoseSet: 0
  leftPose:
    handOffset: {x: 0, y: 0, z: 0}
    rotationOffset: {x: 0, y: 0, z: 0}
    localQuaternionOffset: {x: 0, y: 0, z: 0, w: 0}
    posePositions: []
    poseRotations: []
  leftPoseSet: 0
